{
    "id" : "CoreSampleGameplay",
    "version" : "0.54.5",
    "displayName" : "Core Gameplay",
    "description" : "Minimal gameplay template. Little content but a few starting items.",
    "dependencies" :
    [
        {"id": "Core", "minVersion": "0.1.0", "maxVersion": "1.0.0"}
    ],
    "isGameplay" : "true",
    "defaultWorldGenerator" : "Core:FacetedPerlin"
}
